Utilisez la commande md5 pour verifier le checksum de vos fichiers
Voici la liste des bios compatibles, avec le nom correspondant, triés par systemes.


- Sega 32X : 
6a5433f6a132a2b683635819a6dcf085  32X_G_BIOS.BIN
f88354ec482be09aeccd76a97bb75868  32X_M_BIOS.BIN
7f041b6a55cd7423a6c08a219335269e  32X_S_BIOS.BIN


- Sega MEGA CD :
854b9150240a198070150e4566ae1290  us_scd2_9306.bin
d8b8b720dea6c6ba25c309ed633930f4  eu_mcd2_9306.bin
bdeb4c47da613946d422d97d98b21cda  jp_mcd1_9112.bin


- FAMICOM DISK SYSTEM : 
ca30b50f880eb660a320674ed365ef7a  disksys.rom


- PLAYSTATION :
924e392ed05558ffdb115408c263dccf  SCPH1001.BIN


- MEDNAFEN_PSX (X86/X86_64) :
8dd7d5296a650fac7319bce665a6a53c  scph5500.bin
490f666e1afb15b7362b406ed1cea246  scph5501.bin
32736f17079d0b2b7024407c39bd3050  scph5502.bin


- GAMEBOY ADVANCE : 
a860e8c0b6d573d191e4ec7db1b1e4f6  gba_bios.bin


- SUPER GAME BOY :
d574d4f9c12f305074798f54c091a8b4  sgb_bios.bin


- SATELLAVIEW :
fed4d8242cfbed61343d53d48432aced  BS-X.bin


- SUFAMI TURBO :
d3a44ba7d42a74d3ac58cb9c14c6a5ca  STBIOS.bin


- PCENGINE CD : 
ff1a674273fe3540ccef576376407d1d  syscard3.pce


- NEC PC-FX : 
08e36edbea28a017f79f8d4f7ff9b6d7  pcfx.rom


- NEC PC-98 : 
Les fichiers bios doivent être placés dans un sous dossier nommé "np2kai"

7da1e5b7c482d4108d22a5b09631d967  np2kai/font.bmp
38d32748ae49d1815b0614970849fd40  np2kai/FONT.ROM
cd237e16e7e77c06bb58540e9e9fca68  np2kai/bios.rom
72ea51443070f0e9212bfc9b793ee28e  np2kai/itf.rom
524473c1a5a03b17e21d86a0408ff827  np2kai/sound.rom
d94546e70f17fd899be8df3544ab6cbb  np2kai/2608_bd.wav
d71004351c8bbfdad53b18222c061d49  np2kai/2608_sd.wav
593cff6597ab9380d822b8f824fd2c28  np2kai/2608_top.wav
08c54a0c1f774a5538a848a6665a34b4  np2kai/2608_hh.wav
96a4ead13f364734f79b0c58af2f0e1f  np2kai/2608_tom.wav
465ea0768b27da404aec45dfc501404b  np2kai/2608_rim.wav


- FMSX : 
d6dedca1112ddfda94cc9b2e426b818b  CARTS.SHA
85b38e4128bbc300e675f55b278683a8  CYRILLIC.FNT
80dcd1ad1a4cf65d64b7ba10504e8190  DISK.ROM
af8537262df8df267072f359399a7635  FMPAC16.ROM
6f69cc8b5ed761b03afd78000dfb0e19  FMPAC.ROM
c83e50e9f33b8dd893c414691822740d  ITALIC.FNT
febe8782b466d7c3b16de6d104826b34  KANJI.ROM
2183c2aff17cf4297bdb496de78c2e8a  MSX2EXT.ROM
7c8243c71d8f143b2531f01afa6a05dc  MSX2PEXT.ROM
6d8c0ca64e726c82a4b726e9b01cdf1e  MSX2P.ROM
ec3a01c91f24fbddcbcab0ad301bc9ef  MSX2.ROM
6418d091cd6907bbcf940324339e43bb  MSXDOS2.ROM
aa95aea2563cd5ec0a0919b44cc17d47  MSX.ROM
403cdea1cbd2bb24fae506941f8f655e  PAINTER.ROM
279efd1eae0d358eecd4edc7d9adedf3  RS232.ROM


- BLUEMSX (EMULATEUR MSX PAR DEFAUT) :
Merci de lire le fichier "lisezmoi.txt" présent dans le répertoire "/roms/msx" de votre recalbox.


- LYNX :
fcd403db69f54290b51035d82f835e7b  lynxboot.img


- ATARI 7800 :
0763f1ffb006ddbe32e52d497ee848ae  7800 BIOS (U).rom


- ATARI ST : 
b2a8570de2e850c5acf81cb80512d9f6  tos.img


- ODYSSEY2/VIDEOPAC :
562d5ebf9e030a40d6fabfc2f33139fd  o2rom.bin


- COLECOVISION :
Merci de lire le fichier "lisezmoi.txt" présent dans le répertoire "/roms/colecovision" de votre recalbox.


- DREAMCAST :
e10c53c2f8b90bab96ead2d368858623  dc_boot.bin
d6e11a23f1fa01cddb5dfccf7e4cc8d7  dc_flash.bin


- Nintendo DS (Uniquement X86/X86_64) :
df692a80a5b1bc90728bc3dfc76cd948  bios7.bin
a392174eb3e572fed6447e956bde4b25  bios9.bin
e45033d9b0fa6b0de071292bba7c9d13  firmware.bin


- SHARP X68000 :
Les fichiers bios doivent être placés dans un sous dossier nommé "keropi"

7fd4caabac1d9169e289f0f7bbf71d8e  keropi/iplrom.dat
cb0a5cfcf7247a7eab74bb2716260269  keropi/cgrom.dat


- PANASONIC 3DO :
51f2f43ae2f3508a14d9f56597e2d3ce  panafz10.bin


- POKÉMON MINI :
1e4fb124a3a886865acb574f388c803d  bios.min


- Amiga 600 :
85ad74194e87c08904327de1a9443b7a  kick33180.A500.rom
82a21c1890cae844b3df741f2762d48d  kick34005.A500.rom
dc10d7bdd1b6f450773dfb558477c230  kick37175.A500.rom
0b839c665635a249c5736118c68a69a7  kick40063.A600.rom


- Amiga 1200 :
b7cc148386aa631136f510cd29e42fc3  kick39106.A1200.rom
646773759326fbac3b2311fd8c8793ee  kick40068.A1200.rom
9bdedde6a4f33555b4a270c8ca53297d  kick40068.A4000.rom


- Amiga CD32 :
5f8924d013dd57a89cf349f4cdedc6b1  kick40060.CD32.rom
bb72565701b1b6faece07d68ea5da639  kick40060.CD32.ext.rom


- ATARI 800 & 5200 :
281f20ea4320404ec820fb7ec0693b38  5200.rom
0bac0c6a50104045d902df4503a4c30b  ATARIBAS.ROM
eb1f32f5d9f382db1bbfb8d7f9cb343a  ATARIOSA.ROM
a3e8d617c95d08031fe1b20d541434b2  ATARIOSB.ROM
06daac977823773a3eea3422fd26a703  ATARIXL.ROM


- MATTEL INTELLIVISION :
62e761035cb657903761800f4437b8af  exec.bin
0cd5946c6473e42e8e4c2137785e427f  grom.bin


- FAIRCHILD CHANNEL F :
da98f4bb3242ab80d76629021bb27585  sl31254.bin
ac9804d4c0e9d07e33472e3726ed15c3  sl31253.bin
95d339631d867c8f1d15a5f2ec26069d  sl90025.bin


- TANGERINE ORIC/ATMOS :
4a1ff5f8719d67dafcf85ac61959cdb6  8dos.rom
ebe418ec8a6c85d5ac32956c9a96c179  basic10.rom
a330779c42ad7d0c4ac6ef9e92788ec6  basic11b.rom
364bf095e0dc4222d75354d50b8cddfc  hyperbas.rom
5136f764a7dbd1352519351fbb53a9f3  jasmin.rom
df864344d2a2091c3f952bd1c5ce1707  microdis.rom
8712a22e7e078de3343667d9fc1f2390  pravetzt.rom
2324c9cc227c1327a72a667c97ed2990  teleass.rom
0a814078410353744e2947a8e9342e4e  telmatic.rom
9a432244d9ee4a49e8ddcde64af94e05  telmon24.rom